Coastwide indices • indexwc
…
The log-likelihood and AIC are returned with

diagnostics$loglike
#> 'log Lik.' -123.9427 (df=43)
diagnostics$aic
#> [1] 333.8853

A tibble with fixed and random effects (with standard error and
confidence intervals) is returned with

diagnostics$effects
#> # A tibble: 43 × 6
#>    term      estimate std.error conf.low conf.high model
#>    <chr>        <dbl>     <dbl>    <dbl>     <dbl> <int>
#>  1 fyear2003    -1.69     0.193    -2.07     -1.32     1
#>  2 fyear2004    -1.96     0.228    -2.41     -1.52     1
#>  3 fyear2005    -1.56     0.171    -1.89     -1.22     1
#>  4 fyear2006    -1.86     0.197    -2.25     -1.48     1
#>  5 fyear2007    -1.54     0.165    -1.86     -1.21     1
#>  6 fyear2008    -1.82     0.194    -2.20     -1.44     1
#>  7 fyear2009    -1.76     0.184    -2.12     -1.40     1
#>  8 fyear2010    -1.53     0.167    -1.85     -1.20     1
#>  9 fyear2011    -1.47     0.164    -1.79     -1.15     1
#> 10 fyear2012    -1.58     0.175    -1.92     -1.24     1
#> # ℹ 33 more rows
…
The original data is returned (with residual values added) as

diagnostics$data_with_residuals
#> # A tibble: 4,521 × 21
#>     year fyear survey_name common_name         catch_numbers catch_weight effort
#>    <int> <fct> <chr>       <chr>                       <dbl>        <dbl>  <dbl>
#>  1  2003 2003  WCGBTS      yellowtail rockfish             0        0     0.0177
#>  2  2003 2003  WCGBTS      yellowtail rockfish           703        1.13  0.0196
#>  3  2003 2003  WCGBTS      yellowtail rockfish             0        0     0.0224
#>  4  2003 2003  WCGBTS      yellowtail rockfish             0        0     0.0207
#>  5  2003 2003  WCGBTS      yellowtail rockfish             0        0     0.0187
#>  6  2003 2003  WCGBTS      yellowtail rockfish           186        0.248 0.0209
#>  7  2003 2003  WCGBTS      yellowtail rockfish             0        0     0.0216
#>  8  2003 2003  WCGBTS      yellowtail rockfish             0        0     0.0225
#>  9  2003 2003  WCGBTS      yellowtail rockfish             0        0     0.0175
#> 10  2003 2003  WCGBTS      yellowtail rockfish             0        0     0.0201
#> # ℹ 4,511 more rows
#> # ℹ 14 more variables: pass_scaled <dbl>, vessel_year <fct>, longitude <dbl>,
#> #   latitude <dbl>, depth <dbl>, depth_scaled <dbl[,1]>,
#> #   depth_scaled_squared <dbl[,1]>, x <dbl>, y <dbl>, split_mendocino <chr>,
#> #   residuals <dbl>, residuals2 <dbl>, X <dbl>, Y <dbl>

Finally, predictions on the survey grid (or other data passed in) are
stored in a dataframe

diagnostics$predictions
#> # A tibble: 912,560 × 60
#> # Rowwise: 
#>    OBJECTID Point_id Northin_m Easting_m latitude longitude Ngdc_m  Hard Mixed
#>       <int>    <int>     <int>     <int>    <dbl>     <dbl>  <int> <dbl> <dbl>
#>  1        1    43127      4000    581500     32.0     -120.  -1414    NA    NA
#>  2        2    43128      4000    583500     32.0     -120.  -1692    NA    NA
#>  3        3    43129      4000    585500     32.0     -120.  -1508    NA    NA
#>  4        4    43130      4000    587500     32.0     -120.  -1324    NA    NA
#>  5        5    43131      4000    589500     32.0     -119.  -1160    NA    NA
#>  6        6    43132      4000    591500     32.0     -119.  -1205    NA    NA
#>  7        7    43133      4000    619500     32.0     -119.  -1600    NA    NA
#>  8        8    43134      4000    621500     32.0     -119.  -1573    NA    NA
#>  9        9    43135      4000    623500     32.0     -119.  -1637    NA    NA
#> 10       10    43136      4000    625500     32.0     -119.  -1568    NA    NA
#> # ℹ 912,550 more rows
#> # ℹ 51 more variables: Soft <dbl>, Slope <fct>, Substrate <int>,
#> #   Confidence <int>, Grain <dbl>, Srtm_m <int>, Rock_dist_ <int>,
#> #   Temp03krig <dbl>, Temp04krig <dbl>, Temp05krig <dbl>, Temp06krig <dbl>,
#> #   Temp07krig <dbl>, Temp08krig <dbl>, Temp09krig <dbl>, Temp10krig <dbl>,
#> #   Temp11krig <dbl>, Tempallyr <dbl>, Cowcod <int>, propInCCA <dbl>,
#> #   propInWCGBTS <dbl>, propInTriennial <dbl>, propInSlope98_00 <dbl>, …
…
